32567 34597 311
1 3254 217
5346 21432 279
500 642 137
6560 9640 260
60003 3534 340
345680 341253 353
235867 127469 443
4568 235867 443
124 325 131
124689 532 354
5486 21539 279
43597 1235 324
457 21408 279
34574 21584 311
4385 200 238
21253 235948 443
50 50 25
100325 235 351
199975 13 383
3579 20099 279
15 23457 279
244 6888 262
305 666 145
2352 345 183
1111 5555 238
689 11123 268
253 297867 443
1832 44444 324
12345 67890 340
7234 2098 262
5802 600 238
7083 97934 351
325 325 25
32587 1234 308
23567 59863 340
68734 97562 351
15 15 18
45 129 122
213 5978 238
3485 9200 262
59357 599099 470
125487 235408 443
8793 834569 509
4387 408098 443
1500 1569 154
6969 666 262
34587 3487 311
16544 54354 340
123789 456123 449
488 567 142
5432 4587 210
4351 45666 324
41203 9653 324
505406 589000 470
5046 6000 236
9000 15000 276
61451 358410 443
644444 79824 509
3333 4567 238
468 789 171
5068 54361 340
8744 7952 252
1 999999 525
1351 53684 340
15 65 113
79684 413251 449
5469 7822 262
4161 6874 262
13658 45321 324
54132 46824 340
68432 58431 335
684131 690000 398
468425 789455 509
14312 24541 282
999999 1 525
4635 5436 210
5841 789 238
789456 222222 509
47681 435245 449
26 78 116
1574 9836 262
54684 35461 340
4512 5000 210
9696 12121 268
452 768 171
158 84658 351
345 8760 262
67481 84311 351
45 468152 449
354 354 33
485215 87463 449
485555 555584 470
64785 385743 443
15 21 21
96845 5462 351
543 358439 443
54135 54315 260
7985 5897 262
16 61 113
21894 215894 383
12956 123486 354
453490 6839 449
5647 4893 236
7906 8000 252
21536 38452 324
832 1000 179
3254 8623 262
1237 96978 351
34596 1237 311
435697 340587 449
666 666 114
684 8581 262
6842 5744 262
98736 39255 351
74325 86143 351
86424 382151 443
57032 354130 443
9696 385135 443
843108 68405 525
410658 624560 470
4684 46877 324
134450 874618 525
186435 860554 525
78642 468621 449
789 987 179
135 3455 217
6041 68432 340
746822 684301 504
132456 685135 509
874651 574965 525
104531 555555 470
23 987 179
564 878 179
874635 987352 507
46541 54682 340
58721 254153 443
63542 4120 340
1651 136581 354
63510 84365 351
684125 684156 230
16873 89898 351
35353 468507 449
846313 999988 507
87913 684254 509
35468 12536 311
906084 990000 507
68400 95130 351
684365 968655 525
98735 86740 333
768245 891400 525
1 84365 351
686468 8 509
4 68143 340
513 463581 449
4521 86532 351
38435 876252 525
8534 34585 311
43512 146355 375
38545 35852 306
55555 55555 154
8135 89588 351
45607 98000 351
12 35 112
45 68 113
46813 7685 324
25814 468027 449
3548 68796 340
13542 56782 340
544 900 179
7586 46523 324
56140 5482 340
3546 46842 324
987654 874613 507
4354 58484 340
431205 1 449
54130 5 340
6 64138 340
7 95468 351
43584 20 324
48 768251 509
76746 6410 340
68735 89265 351
543 6387 262
4152 274214 443
1586 38435 324
4358 574568 470
45 5748 238
6385 6402 169
41058 58468 340
568 68413 340
5436 14368 276
1435 358143 443
15 53435 340
13543 354352 443
351325 35584 443
415 78932 351
3512 58768 340
43548 384355 443
1435 5451 238
4553 358725 443
45 78535 351
5432 57352 340
452 58748 340
4545 39642 324
384 5873 238
453215 457114 356
15100 5410 276
438 3158 217
78158 999999 525
